{
  "colors" : [
    {
      "color" : {
        "color-space" : "extended-gray",
        "components" : {
          "alpha" : "0.600",
          "white" : "0.000"
        }
      },
      "idiom" : "universal"
    },
    {
      "appearances" : [
        {
          "appearance" : "luminosity",
          "value" : "dark"
        }
      ],
      "color" : {
        "platform" : "ios",
        "reference" : "lightTextColor"
      },
      "idiom" : "universal"
    }
  ],
  "info" : {
    "author" : "xcode",
    "version" : 1
  }
}
